"Status","Start Time","Stop Time","Duration in ms","Parent Suite","Suite","Sub Suite","Test Class","Test Method","Name","Description"
"passed","Fri Oct 23 11:28:33 IST 2020","Fri Oct 23 11:28:39 IST 2020","5971","Verticurl_Product_Automation_SanitySuite","Chrome Test - Valid Login To Application","org.verticurl.xlo.testCases.LoginTest","org.verticurl.xlo.testCases.LoginTest","loginPage","loginPage","User logged into to the application Successfully"
"failed","Fri Oct 23 16:38:01 IST 2020","Fri Oct 23 16:38:46 IST 2020","45125","Verticurl_Product_Automation_SanitySuite","Chrome Test - Valid Login To Application","org.verticurl.xlo.testCases.LoginTest1","org.verticurl.xlo.testCases.LoginTest1","loginPage","Invalid Login Scenario with wrong username and password","User is not able to login to the application Successfully"
