[ {
  "values" : [ "QA Environment" ],
  "name" : "Testing_Env"
}, {
  "values" : [ "https://exloqa.verticurl.com/" ],
  "name" : "Current_URL"
}, {
  "values" : [ "Chrome,IE,Firefox" ],
  "name" : "Testing_Browsers"
} ]