[ {
  "uid" : "3f2a4d7d5968e2da",
  "name" : "loginPage",
  "time" : {
    "start" : 1603432713053,
    "stop" : 1603432719024,
    "duration" : 5971
  },
  "status" : "passed",
  "severity" : "blocker"
}, {
  "uid" : "2ff095b161e4e8ed",
  "name" : "Invalid Login Scenario with wrong username and password",
  "time" : {
    "start" : 1603451281583,
    "stop" : 1603451326708,
    "duration" : 45125
  },
  "status" : "failed",
  "severity" : "blocker"
} ]